{
    "id": "6a525924-f260-495e-99ee-737688f83050",
    "schema": "https://metadata.datadrivendiscovery.org/schemas/v0/pipeline.json",
    "created": "2020-04-30T00:07:25.546166Z",
    "inputs": [
        {
            "name": "inputs"
        }
    ],
    "outputs": [
        {
            "data": "steps.5.produce",
            "name": "output predictions"
        }
    ],
    "steps": [
        {
            "type": "PRIMITIVE",
            "primitive": {
                "id": "f31f8c1f-d1c5-43e5-a4b2-2ae4a761ef2e",
                "version": "0.2.0",
                "python_path": "d3m.primitives.data_transformation.denormalize.Common",
                "name": "Denormalize datasets",
                "digest": "35e2d7ea40653c78c5800ea07373edda7a66071cb65e70b588ac6d16860fbedf"
            },
            "arguments": {
                "inputs": {
                    "type": "CONTAINER",
                    "data": "inputs.0"
                }
            },
            "outputs": [
                {
                    "id": "produce"
                }
            ]
        },
        {
            "type": "PRIMITIVE",
            "primitive": {
                "id": "4b42ce1e-9b98-4a25-b68e-fad13311eb65",
                "version": "0.3.0",
                "python_path": "d3m.primitives.data_transformation.dataset_to_dataframe.Common",
                "name": "Extract a DataFrame from a Dataset",
                "digest": "d8286a2c483874bbd71f6b68c409472428e6a8fa08a5d3e12690f054a4d07419"
            },
            "arguments": {
                "inputs": {
                    "type": "CONTAINER",
                    "data": "steps.0.produce"
                }
            },
            "outputs": [
                {
                    "id": "produce"
                }
            ]
        },
        {
            "type": "PRIMITIVE",
            "primitive": {
                "id": "2e15cd20-7edd-4830-9b3f-c97682514d02",
                "version": "0.1.0",
                "python_path": "d3m.primitives.feature_extraction.vggnet.UBC",
                "name": "VGG16 Convolutional Neural Network",
                "digest": "5d5dcbaa4ac5a240adc230ca571fbe22138d27fbdb0f6425c592230000c2a71b"
            },
            "arguments": {
                "inputs": {
                    "type": "CONTAINER",
                    "data": "steps.1.produce"
                },
                "outputs": {
                    "type": "CONTAINER",
                    "data": "steps.1.produce"
                }
            },
            "outputs": [
                {
                    "id": "produce"
                }
            ],
            "hyperparams": {
                "feature_extract_only": {
                    "type": "VALUE",
                    "data": true
                },
                "include_top": {
                    "type": "VALUE",
                    "data": true
                }
            }
        },
        {
            "type": "PRIMITIVE",
            "primitive": {
                "id": "3153e9fc-bd0d-4765-ac4e-d11d6cc777b2",
                "version": "0.1.0",
                "python_path": "d3m.primitives.dimensionality_reduction.pca.UBC",
                "name": "Principal Component Analysis",
                "digest": "606222c7f82dcea6bbda87f95c2c559dbfffa7f53642dee8b81988435c89a842"
            },
            "arguments": {
                "inputs": {
                    "type": "CONTAINER",
                    "data": "steps.2.produce"
                },
                "outputs": {
                    "type": "CONTAINER",
                    "data": "steps.2.produce"
                }
            },
            "outputs": [
                {
                    "id": "produce"
                }
            ],
            "hyperparams": {
                "max_components": {
                    "type": "VALUE",
                    "data": 128
                }
            }
        },
        {
            "type": "PRIMITIVE",
            "primitive": {
                "id": "f59200c3-f597-4c92-9793-c2664e6932f8",
                "version": "0.1.0",
                "python_path": "d3m.primitives.regression.LinearRegression.UBC",
                "name": "Bayesian Linear Regression",
                "digest": "be3e95cfb2b2e15584f92ccbb207d0e9e78099b6e834336971461d7ca715f9d3"
            },
            "arguments": {
                "inputs": {
                    "type": "CONTAINER",
                    "data": "steps.3.produce"
                },
                "outputs": {
                    "type": "CONTAINER",
                    "data": "steps.3.produce"
                }
            },
            "outputs": [
                {
                    "id": "produce"
                }
            ],
            "hyperparams": {
                "learning_rate": {
                    "type": "VALUE",
                    "data": 0.001
                },
                "use_gradient_fit": {
                    "type": "VALUE",
                    "data": true
                },
                "minibatch_size": {
                    "type": "VALUE",
                    "data": 10
                },
                "num_iterations": {
                    "type": "VALUE",
                    "data": 1000
                }
            }
        },
        {
            "type": "PRIMITIVE",
            "primitive": {
                "id": "8d38b340-f83f-4877-baaa-162f8e551736",
                "version": "0.3.0",
                "python_path": "d3m.primitives.data_transformation.construct_predictions.Common",
                "name": "Construct pipeline predictions output",
                "digest": "ebd5ef709535e6b21759e08cb5cd19bffd040f1a16b6e4ce7bece1a1a97776d5"
            },
            "arguments": {
                "inputs": {
                    "type": "CONTAINER",
                    "data": "steps.4.produce"
                },
                "reference": {
                    "type": "CONTAINER",
                    "data": "steps.1.produce"
                }
            },
            "outputs": [
                {
                    "id": "produce"
                }
            ]
        }
    ],
    "digest": "e3491f051c4bf558b58c624feae27038bf18a229dc775276b8497cc491a318b1"
}